Supplementary Data - Figure 3
…
# Add a label to determine whether an interval is a mass extinction or background interval:

Jacc$mass <- NA

#Using stringr's str_detect and dplyr's mutate, we can do this:
Jacc <- Jacc |> 
  mutate(mass = case_when(str_detect(ID, "(lome|LOME2|PT|PT2|TJ|Kpg)$")~ "mass", TRUE ~ "background")) #all else are labeled background

Now, here is the final dataset with all interval pairs and trios!

Code

Jacc

# A tibble: 133 × 6
# Groups:   cutdist, ID [123]
   cutdist ID     ave_after ave_before Tavg_diff mass      
     <dbl> <chr>      <dbl>      <dbl>     <dbl> <chr>     
 1       0 AlbCen    0.0571     0.0417  0.0153   background
 2    2000 AlbCen    0.0345     0.0222  0.0123   background
 3    4000 AlbCen    0.0416     0.0435 -0.00194  background
 4    6000 AlbCen    0.0240     0.0338 -0.00981  background
 5    8000 AlbCen    0.0247     0.0258 -0.00110  background
 6   10000 AlbCen    0.0210     0.0292 -0.00816  background
 7   12000 AlbCen    0.0181     0.0241 -0.00595  background
 8   14000 AlbCen    0.0246     0.0250 -0.000375 background
 9   16000 AlbCen    0.0235     0.0212  0.00230  background
10   18000 AlbCen    0.0112     0.0771 -0.0659   background
# ℹ 123 more rows

Finding the “no-change” zone

For this particular set of plots, we are going to want the dataframes of when we compare each age to itself (Changhsingian-to-Changhsingian, for example) instead of comparing before and after. Luckily, we already calculated that in the previous set of codes (before_after.R). From that code, we are interested in looking at the dataframes for each age that stored all our calculated similarity values for each iteration of our subsamples per age. We loaded that dataset in earlier in this script and labeled it all_errors, which gives the age as well as the maximumum and minimum values of those differences.

Code

all_errors

# A tibble: 214 × 5
   cutdist  mean_diff    max     min ID   
     <dbl>      <dbl>  <dbl>   <dbl> <chr>
 1       0 -0.00132   0.0164 -0.0164 Alb  
 2    2000 -0.000565  0.0168 -0.0113 Alb  
 3    4000 -0.000692  0.0189 -0.0228 Alb  
 4    6000  0.000185  0.0180 -0.0193 Alb  
 5    8000 -0.000686  0.0154 -0.0120 Alb  
 6   10000  0.000160  0.0112 -0.0145 Alb  
 7   12000 -0.000378  0.0115 -0.0127 Alb  
 8   14000 -0.0000350 0.0177 -0.0137 Alb  
 9   16000 -0.000755  0.0203 -0.0201 Alb  
10   18000 -0.00788   0.307  -0.255  Alb  
# ℹ 204 more rows
…
